{
  "version": "1.0.0-*",
  "frameworks": {
    "dnxcore50": {
      "bin": {
        "assembly": "../../lib/dnxcore50/System.Data.dll"
      },
      "dependencies": {
        "System": "1.0.0-*"
      }
    }
  }
}