{
  "version": "1.0.0-*",
  "compilationOptions": {
    "emitEntryPoint": true
  },

  "dependencies": {
    "EntityFramework.InMemory": "7.0.0-*",
    "EntityFramework.Commands": "7.0.0-rc1-final",
    "EntityFramework.MicrosoftSqlServer": "7.0.0-rc1-final",
    "EntityFramework.MicrosoftSqlServer.Design": "7.0.0-rc1-final",
    "Microsoft.AspNet.Authentication.Cookies": "1.0.0-rc1-final",
    "Microsoft.AspNet.Diagnostics.Entity": "7.0.0-rc1-final",
    "Microsoft.AspNet.Identity.EntityFramework": "3.0.0-rc1-final",
    "Microsoft.AspNet.IISPlatformHandler": "1.0.0-rc1-final",
    "Microsoft.AspNet.Mvc": "6.0.0-rc1-final",
    "Microsoft.AspNet.Mvc.TagHelpers": "6.0.0-rc1-final",
    "Microsoft.AspNet.Server.Kestrel": "1.0.0-rc1-final",
    "Microsoft.AspNet.StaticFiles": "1.0.0-rc1-final",
    "Microsoft.AspNet.Tooling.Razor": "1.0.0-rc1-final",
    "Microsoft.Extensions.CodeGenerators.Mvc": "1.0.0-rc1-final",
    "Microsoft.Extensions.Configuration.FileProviderExtensions": "1.0.0-rc1-final",
    "Microsoft.Extensions.Configuration.Json": "1.0.0-rc1-final",
    "Microsoft.Extensions.Configuration.UserSecrets": "1.0.0-rc1-final",
    "Microsoft.Extensions.Logging": "1.0.0-rc1-final",
    "Microsoft.Extensions.Logging.Console": "1.0.0-rc1-final",
    "Microsoft.Extensions.Logging.Debug": "1.0.0-rc1-final",
    "Microsoft.VisualStudio.Web.BrowserLink.Loader": "14.0.0-rc1-final",
    "LightMock.vNext": "1.0.1"
  },

  "commands": {
    "web": "Microsoft.AspNet.Server.Kestrel",
    "ef": "EntityFramework.Commands"
  },

  "frameworks": {
    "dnxcore50": {
      "dependencies": {

        "DailyBridge.Domain": "1.0.0-*",
        "Data": "1.0.0",
        "DailyBridge.Infrastruction": "1.0.0-*",
        "Serilog.Extensions.Logging": "1.0.0-rc1-final-10092",
        "Serilog.Sinks.RollingFile": "2.0.0-beta-487",
        "Serilog.Sinks.Literate": "2.0.0-beta-21",
        "Dapper": "1.50.0-beta8",
        "DailyBridge.Infrastruction.Interface": "1.0.0-*"
      }
    }
  },
  "webroot": "wwwroot",
  "exclude": [
    "wwwroot",
    "node_modules"
  ],
  "publishExclude": [
    "**.user",
    "**.vspscc"
  ]
}
